F:\Development\Java\Spigot Development\MongoDB\src\main\java\me\illuminatiproductions\mongodb\commands\JoinsCommand.java
F:\Development\Java\Spigot Development\MongoDB\src\main\java\me\illuminatiproductions\mongodb\events\JoinEvent.java
F:\Development\Java\Spigot Development\MongoDB\src\main\java\me\illuminatiproductions\mongodb\MongoDB.java
